<svg xmlns="http://www.w3.org/2000/svg" width="15.708" height="13.295" viewBox="0 0 15.708 13.295">
  <g id="Icon_ionic-ios-log-out" data-name="Icon ionic-ios-log-out" transform="translate(-3.375 -5.625)">
    <path id="Tracé_5056" data-name="Tracé 5056" d="M13.346,16.654a.53.53,0,0,0-.529.529.682.682,0,0,1-.68.68H5.112a.682.682,0,0,1-.68-.68V7.362a.682.682,0,0,1,.68-.68h7.025a.682.682,0,0,1,.68.68.529.529,0,1,0,1.058,0,1.738,1.738,0,0,0-1.737-1.737H5.112A1.738,1.738,0,0,0,3.375,7.362v9.82A1.738,1.738,0,0,0,5.112,18.92h7.025a1.738,1.738,0,0,0,1.737-1.737A.53.53,0,0,0,13.346,16.654Z" fill="#008773"/>
    <path id="Tracé_5057" data-name="Tracé 5057" d="M18.9,10.983a.525.525,0,0,0-.374-.155.516.516,0,0,0-.374.155.527.527,0,0,0,0,.748l2.463,2.425h-9.68a.529.529,0,0,0,0,1.058h9.692l-2.4,2.421a.533.533,0,0,0,0,.748l0,0a.546.546,0,0,0,.37.147.51.51,0,0,0,.374-.155l3.12-3.112a.742.742,0,0,0,0-1.1Z" transform="translate(-3.254 -2.408)" fill="#008773"/>
  </g>
</svg>
